lab5-superscalar/test_alu.vcd
$date
	Fri May 01 02:26:02 2020
$end
$version
	Icarus Verilog
$end
$timescale
	1ps
$end
$scope module test_processor $end
$var wire 16 ! cur_pc [15:0] $end
$var wire 16 " dmem_addr [15:0] $end
$var wire 16 # dmem_towrite [15:0] $end
$var wire 1 $ dmem_we $end
$var wire 16 % test_cur_insn_A [15:0] $end
$var wire 16 & test_cur_insn_B [15:0] $end
$var wire 16 ' test_cur_pc_A [15:0] $end
$var wire 16 ( test_cur_pc_B [15:0] $end
$var wire 16 ) test_dmem_addr_A [15:0] $end
$var wire 16 * test_dmem_addr_B [15:0] $end
$var wire 16 + test_dmem_data_A [15:0] $end
$var wire 16 , test_dmem_data_B [15:0] $end
$var wire 1 - test_dmem_we_A $end
$var wire 1 . test_dmem_we_B $end
$var wire 3 / test_nzp_new_bits_A [2:0] $end
$var wire 3 0 test_nzp_new_bits_B [2:0] $end
$var wire 1 1 test_nzp_we_A $end
$var wire 1 2 test_nzp_we_B $end
$var wire 16 3 test_regfile_data_A [15:0] $end
$var wire 16 4 test_regfile_data_B [15:0] $end
$var wire 1 5 test_regfile_we_A $end
$var wire 1 6 test_regfile_we_B $end
$var wire 3 7 test_regfile_wsel_A [2:0] $end
$var wire 3 8 test_regfile_wsel_B [2:0] $end
$var wire 2 9 test_stall_A [1:0] $end
$var wire 2 : test_stall_B [1:0] $end
$var wire 16 ; vout_dummy [15:0] $end
$var wire 1 < i2re $end
$var wire 1 = i1re $end
$var wire 1 > gwe $end
$var wire 1 ? dre $end
$var wire 16 @ cur_pc_plus1 [15:0] $end
$var wire 16 A cur_insn_B [15:0] $end
$var wire 16 B cur_insn_A [15:0] $end
$var wire 16 C cur_dmem_data [15:0] $end
$var reg 1 D clk $end
$var reg 1 E rst $end
$var reg 16 F verify_cur_insn_A [15:0] $end
$var reg 16 G verify_cur_insn_B [15:0] $end
$var reg 16 H verify_cur_pc_A [15:0] $end
$var reg 16 I verify_cur_pc_B [15:0] $end
$var reg 16 J verify_dmem_addr_A [15:0] $end
$var reg 16 K verify_dmem_addr_B [15:0] $end
$var reg 16 L verify_dmem_data_A [15:0] $end
$var reg 16 M verify_dmem_data_B [15:0] $end
$var reg 1 N verify_dmem_we_A $end
$var reg 1 O verify_dmem_we_B $end
$var reg 3 P verify_nzp_new_bits_A [2:0] $end
$var reg 3 Q verify_nzp_new_bits_B [2:0] $end
$var reg 1 R verify_nzp_we_A $end
$var reg 1 S verify_nzp_we_B $end
$var reg 16 T verify_regfile_data_A [15:0] $end
$var reg 16 U verify_regfile_data_B [15:0] $end
$var reg 1 V verify_regfile_we_A $end
$var reg 1 W verify_regfile_we_B $end
$var reg 3 X verify_regfile_wsel_A [2:0] $end
$var reg 3 Y verify_regfile_wsel_B [2:0] $end
$var reg 2 Z verify_stall_A [1:0] $end
$var reg 2 [ verify_stall_B [1:0] $end
$var integer 32 \ consecutive_stalls [31:0] $end
$var integer 32 ] errors [31:0] $end
$var integer 32 ^ exit_at_first_failure [31:0] $end
$var integer 32 _ input_file [31:0] $end
$var integer 32 ` insns [31:0] $end
$var integer 32 a num_cycles [31:0] $end
$var integer 32 b output_file [31:0] $end
$var integer 32 c tests [31:0] $end
$scope module memory $end
$var wire 16 d daddr [15:0] $end
$var wire 16 e din [15:0] $end
$var wire 1 $ dwe $end
$var wire 16 f i1addr [15:0] $end
$var wire 16 g i1out [15:0] $end
$var wire 16 h i2addr [15:0] $end
$var wire 16 i i2out [15:0] $end
$var wire 1 D idclk $end
$var wire 1 E rst $end
$var wire 16 j vaddr [15:0] $end
$var wire 1 k vclk $end
$var wire 16 l vout [15:0] $end
$var wire 1 < i2re $end
$var wire 16 m i2out_not_delayed [15:0] $end
$var wire 16 n i2out_delayed [15:0] $end
$var wire 1 = i1re $end
$var wire 16 o i1out_not_delayed [15:0] $end
$var wire 16 p i1out_delayed [15:0] $end
$var wire 1 > gwe $end
$var wire 1 ? dre $end
$var wire 16 q dout [15:0] $end
$scope module delayer1 $end
$var wire 1 D clk $end
$var wire 16 r out_value [15:0] $end
$var wire 1 E rst $end
$var wire 16 s value_8_9 [15:0] $end
$var wire 16 t value_7_8 [15:0] $end
$var wire 16 u value_6_7 [15:0] $end
$var wire 16 v value_5_6 [15:0] $end
$var wire 16 w value_4_5 [15:0] $end
$var wire 16 x value_3_4 [15:0] $end
$var wire 16 y value_2_3 [15:0] $end
$var wire 16 z value_1_2 [15:0] $end
$var wire 16 { in_value [15:0] $end
$var wire 1 > gwe $end
$scope module stage_1 $end
$var wire 1 D clk $end
$var wire 16 | out [15:0] $end
$var wire 1 E rst $end
$var wire 1 } we $end
$var wire 16 ~ in [15:0] $end
$var wire 1 > gwe $end
$var reg 16 !" state [15:0] $end
$upscope $end
$scope module stage_2 $end
$var wire 1 D clk $end
$var wire 16 "" in [15:0] $end
$var wire 16 #" out [15:0] $end
$var wire 1 E rst $end
$var wire 1 $" we $end
$var wire 1 > gwe $end
$var reg 16 %" state [15:0] $end
$upscope $end
$scope module stage_3 $end
$var wire 1 D clk $end
$var wire 16 &" in [15:0] $end
$var wire 16 '" out [15:0] $end
$var wire 1 E rst $end
$var wire 1 (" we $end
$var wire 1 > gwe $end
$var reg 16 )" state [15:0] $end
$upscope $end
$scope module stage_4 $end
$var wire 1 D clk $end
$var wire 16 *" in [15:0] $end
$var wire 16 +" out [15:0] $end
$var wire 1 E rst $end
$var wire 1 ," we $end
$var wire 1 > gwe $end
$var reg 16 -" state [15:0] $end
$upscope $end
$scope module stage_5 $end
$var wire 1 D clk $end
$var wire 16 ." in [15:0] $end
$var wire 16 /" out [15:0] $end
$var wire 1 E rst $end
$var wire 1 0" we $end
$var wire 1 > gwe $end
$var reg 16 1" state [15:0] $end
$upscope $end
$scope module stage_6 $end
$var wire 1 D clk $end
$var wire 16 2" in [15:0] $end
$var wire 16 3" out [15:0] $end
$var wire 1 E rst $end
$var wire 1 4" we $end
$var wire 1 > gwe $end
$var reg 16 5" state [15:0] $end
$upscope $end
$scope module stage_7 $end
$var wire 1 D clk $end
$var wire 16 6" in [15:0] $end
$var wire 16 7" out [15:0] $end
$var wire 1 E rst $end
$var wire 1 8" we $end
$var wire 1 > gwe $end
$var reg 16 9" state [15:0] $end
$upscope $end
$scope module stage_8 $end
$var wire 1 D clk $end
$var wire 16 :" in [15:0] $end
$var wire 16 ;" out [15:0] $end
$var wire 1 E rst $end
$var wire 1 <" we $end
$var wire 1 > gwe $end
$var reg 16 =" state [15:0] $end
$upscope $end
$upscope $end
$scope module delayer2 $end
$var wire 1 D clk $end
$var wire 16 >" out_value [15:0] $end
$var wire 1 E rst $end
$var wire 16 ?" value_8_9 [15:0] $end
$var wire 16 @" value_7_8 [15:0] $end
$var wire 16 A" value_6_7 [15:0] $end
$var wire 16 B" value_5_6 [15:0] $end
$var wire 16 C" value_4_5 [15:0] $end
$var wire 16 D" value_3_4 [15:0] $end
$var wire 16 E" value_2_3 [15:0] $end
$var wire 16 F" value_1_2 [15:0] $end
$var wire 16 G" in_value [15:0] $end
$var wire 1 > gwe $end
$scope module stage_1 $end
$var wire 1 D clk $end
$var wire 16 H" out [15:0] $end
$var wire 1 E rst $end
$var wire 1 I" we $end
$var wire 16 J" in [15:0] $end
$var wire 1 > gwe $end
$var reg 16 K" state [15:0] $end
$upscope $end
$scope module stage_2 $end
$var wire 1 D clk $end
$var wire 16 L" in [15:0] $end
$var wire 16 M" out [15:0] $end
$var wire 1 E rst $end
$var wire 1 N" we $end
$var wire 1 > gwe $end
$var reg 16 O" state [15:0] $end
$upscope $end
$scope module stage_3 $end
$var wire 1 D clk $end
$var wire 16 P" in [15:0] $end
$var wire 16 Q" out [15:0] $end
$var wire 1 E rst $end
$var wire 1 R" we $end
$var wire 1 > gwe $end
$var reg 16 S" state [15:0] $end
$upscope $end
$scope module stage_4 $end
$var wire 1 D clk $end
$var wire 16 T" in [15:0] $end
$var wire 16 U" out [15:0] $end
$var wire 1 E rst $end
$var wire 1 V" we $end
$var wire 1 > gwe $end
$var reg 16 W" state [15:0] $end
$upscope $end
$scope module stage_5 $end
$var wire 1 D clk $end
$var wire 16 X" in [15:0] $end
$var wire 16 Y" out [15:0] $end
$var wire 1 E rst $end
$var wire 1 Z" we $end
$var wire 1 > gwe $end
$var reg 16 [" state [15:0] $end
$upscope $end
$scope module stage_6 $end
$var wire 1 D clk $end
$var wire 16 \" in [15:0] $end
$var wire 16 ]" out [15:0] $end
$var wire 1 E rst $end
$var wire 1 ^" we $end
$var wire 1 > gwe $end
$var reg 16 _" state [15:0] $end
$upscope $end
$scope module stage_7 $end
$var wire 1 D clk $end
$var wire 16 `" in [15:0] $end
$var wire 16 a" out [15:0] $end
$var wire 1 E rst $end
$var wire 1 b" we $end
$var wire 1 > gwe $end
$var reg 16 c" state [15:0] $end
$upscope $end
$scope module stage_8 $end
$var wire 1 D clk $end
$var wire 16 d" in [15:0] $end
$var wire 16 e" out [15:0] $end
$var wire 1 E rst $end
$var wire 1 f" we $end
$var wire 1 > gwe $end
$var reg 16 g" state [15:0] $end
$upscope $end
$upscope $end
$scope module memory $end
$var wire 16 h" daddr [15:0] $end
$var wire 1 i" data_we $end
$var wire 16 j" din [15:0] $end
$var wire 16 k" dout [15:0] $end
$var wire 1 $ dwe $end
$var wire 16 l" i1addr [15:0] $end
$var wire 1 m" i1re_latched_one_cycle $end
$var wire 16 n" i2addr [15:0] $end
$var wire 1 o" i2re_latched_one_cycle $end
$var wire 1 D idclk $end
$var wire 1 E rst $end
$var wire 16 p" vaddr [15:0] $end
$var wire 1 k vclk $end
$var wire 16 q" vout [15:0] $end
$var wire 16 r" iaddr [15:0] $end
$var wire 1 < i2re $end
$var wire 16 s" i2out_latched [15:0] $end
$var wire 16 t" i2out [15:0] $end
$var wire 1 = i1re $end
$var wire 16 u" i1out_latched [15:0] $end
$var wire 16 v" i1out [15:0] $end
$var wire 1 > gwe $end
$var wire 1 ? dre $end
$var reg 16 w" mem_out_d [15:0] $end
$var reg 16 x" mem_out_i [15:0] $end
$var reg 16 y" read_vaddr [15:0] $end
$var integer 32 z" f [31:0] $end
$scope module i1out_reg $end
$var wire 1 D clk $end
$var wire 1 {" gwe $end
$var wire 16 |" in [15:0] $end
$var wire 16 }" out [15:0] $end
$var wire 1 E rst $end
$var wire 1 m" we $end
$var reg 16 ~" state [15:0] $end
$upscope $end
$scope module i2out_reg $end
$var wire 1 D clk $end
$var wire 1 !# gwe $end
$var wire 16 "# in [15:0] $end
$var wire 16 ## out [15:0] $end
$var wire 1 E rst $end
$var wire 1 o" we $end
$var reg 16 $# state [15:0] $end
$upscope $end
$upscope $end
$upscope $end
$scope module proc_inst $end
$var wire 1 D clk $end
$var wire 16 %# i_cur_dmem_data [15:0] $end
$var wire 16 &# i_cur_insn_A [15:0] $end
$var wire 16 '# i_cur_insn_B [15:0] $end
$var wire 8 (# led_data [7:0] $end
$var wire 16 )# o_cur_pc [15:0] $end
$var wire 16 *# o_dmem_addr [15:0] $end
$var wire 16 +# o_dmem_towrite [15:0] $end
$var wire 1 $ o_dmem_we $end
$var wire 1 E rst $end
$var wire 8 ,# switch_data [7:0] $end
$var wire 16 -# test_cur_insn_A [15:0] $end
$var wire 16 .# test_cur_insn_B [15:0] $end
$var wire 16 /# test_cur_pc_A [15:0] $end
$var wire 16 0# test_cur_pc_B [15:0] $end
$var wire 16 1# test_dmem_addr_A [15:0] $end
$var wire 16 2# test_dmem_addr_B [15:0] $end
$var wire 16 3# test_dmem_data_A [15:0] $end
$var wire 16 4# test_dmem_data_B [15:0] $end
$var wire 1 - test_dmem_we_A $end
$var wire 1 . test_dmem_we_B $end
$var wire 3 5# test_nzp_new_bits_A [2:0] $end
$var wire 3 6# test_nzp_new_bits_B [2:0] $end
$var wire 1 1 test_nzp_we_A $end
$var wire 1 2 test_nzp_we_B $end
$var wire 16 7# test_regfile_data_A [15:0] $end
$var wire 16 8# test_regfile_data_B [15:0] $end
$var wire 1 5 test_regfile_we_A $end
$var wire 1 6 test_regfile_we_B $end
$var wire 3 9# test_regfile_wsel_A [2:0] $end
$var wire 3 :# test_regfile_wsel_B [2:0] $end
$var wire 2 ;# test_stall_A [1:0] $end
$var wire 2 <# test_stall_B [1:0] $end
$var wire 1 > gwe $end
$upscope $end
$scope module we_gen $end
$var wire 1 D clk $end
$var wire 1 < i2re $end
$var wire 1 = i1re $end
$var wire 1 > gwe $end
$var wire 1 ? dre $end
$var wire 2 =# clk_counter [1:0] $end
$scope module global_we_count $end
$var wire 1 D clk $end
$var wire 2 ># out [1:0] $end
$var reg 2 ?# q [1:0] $end
$upscope $end
$upscope $end
$scope task assertEqual $end
$var reg 16 @# actual [15:0] $end
$var reg 16 A# expected [15:0] $end
$var reg 160 B# label [159:0] $end
$upscope $end
$scope task pinstr $end
$var reg 16 C# insn [15:0] $end
$var reg 5 D# op [4:0] $end
$upscope $end
$scope task printPoints $end
$var reg 32 E# actual [31:0] $end
$var reg 32 F# possible [31:0] $end
$upscope $end
$upscope $end
$enddefinitions $end
#0
$dumpvars
bx F#
bx E#
bx D#
bx C#
bx B#
bx A#
bx @#
b0 ?#
bx >#
bx =#
bz <#
bz ;#
bz :#
bz 9#
bz 8#
bz 7#
bz 6#
bz 5#
bz 4#
bz 3#
bz 2#
bz 1#
bz 0#
bz /#
bz .#
bz -#
b0 ,#
bz +#
bz *#
bz )#
bz (#
bx '#
bx &#
bx %#
bx $#
bx ##
bx "#
1!#
bx ~"
bx }"
bx |"
1{"
b10000000000000000000000000000011 z"
bx y"
bx x"
bx w"
bx v"
bx u"
bx t"
bx s"
bx r"
bx q"
b0 p"
xo"
bx n"
xm"
bz l"
bx k"
bz j"
xi"
bz h"
bx g"
1f"
bx e"
bx d"
bx c"
1b"
bx a"
bx `"
bx _"
1^"
bx ]"
bx \"
bx ["
1Z"
bx Y"
bx X"
bx W"
1V"
bx U"
bx T"
bx S"
1R"
bx Q"
bx P"
bx O"
1N"
bx M"
bx L"
bx K"
bx J"
1I"
bx H"
bx G"
bx F"
bx E"
bx D"
bx C"
bx B"
bx A"
bx @"
bx ?"
bx >"
bx ="
1<"
bx ;"
bx :"
bx 9"
18"
bx 7"
bx 6"
bx 5"
14"
bx 3"
bx 2"
bx 1"
10"
bx /"
bx ."
bx -"
1,"
bx +"
bx *"
bx )"
1("
bx '"
bx &"
bx %"
1$"
bx #"
bx ""
bx !"
bx ~
1}
bx |
bx {
bx z
bx y
bx x
bx w
bx v
bx u
bx t
bx s
bx r
bx q
bx p
bx o
bx n
bx m
bx l
0k
b0 j
bx i
bx h
bx g
bz f
bz e
bz d
b0 c
bx b
b0 a
b0 `
b10000000000000000000000000000011 _
b0 ^
b0 ]
b0 \
bx [
bx Z
bx Y
bx X
xW
xV
bx U
bx T
xS
xR
bx Q
bx P
xO
xN
bx M
bx L
bx K
bx J
bx I
bx H
bx G
bx F
1E
0D
bx C
bx B
bx A
bx @
x?
x>
x=
x<
bx ;
bz :
bz 9
bz 8
bz 7
z6
z5
bz 4
bz 3
z2
z1
bz 0
bz /
z.
z-
bz ,
bz +
bz *
bz )
bz (
bz '
bz &
bz %
z$
bz #
bz "
bz !
$end
#1000
0i"
bz r"
0>
0o"
0?
0m"
0<
1=
b0 =#
b0 >#
#5000
b1 ?#
b0 ~"
b0 $#
1D
#6000
bx r"
b0 A
b0 i
b0 '#
b0 m
b0 G"
b0 J"
b0 t"
1m"
1<
0=
b1 =#
b1 >#
b0 u"
b0 }"
b0 s"
b0 ##
#10000
0D
#15000
b10 ?#
1D
#16000
xi"
bx A
bx i
bx '#
bx m
bx G"
bx J"
bx t"
b0 B
b0 g
b0 &#
b0 o
b0 {
b0 ~
b0 v"
1o"
1?
0m"
0<
b10 =#
b10 >#
#20000
0D
#25000
b11 ?#
1D
#26000
b0 A
b0 i
b0 '#
b0 m
b0 G"
b0 J"
b0 t"
1>
0o"
0?
b11 =#
b11 >#
#30000
0D
#35000
b0 g"
b0 c"
b0 _"
b0 ["
b0 W"
b0 S"
b0 O"
b0 K"
b0 ="
b0 9"
b0 5"
b0 1"
b0 -"
b0 )"
b0 %"
b0 !"
b0 ?#
1D
#36000
0i"
bz r"
b0 n
b0 >"
b0 ?"
b0 e"
b0 @"
b0 a"
b0 d"
b0 A"
b0 ]"
b0 `"
b0 B"
b0 Y"
b0 \"
b0 C"
b0 U"
b0 X"
b0 D"
b0 Q"
b0 T"
b0 E"
b0 M"
b0 P"
b0 F"
b0 H"
b0 L"
b0 p
b0 r
b0 s
b0 ;"
b0 t
b0 7"
b0 :"
b0 u
b0 3"
b0 6"
b0 v
b0 /"
b0 2"
b0 w
b0 +"
b0 ."
b0 x
b0 '"
b0 *"
b0 y
b0 #"
b0 &"
b0 z
b0 |
b0 ""
0>
1=
b0 =#
b0 >#
#40000
0D
#45000
b1 ?#
1D
#46000
bx B
bx g
bx &#
bx o
bx {
bx ~
bx v"
bx r"
1m"
1<
0=
b1 =#
b1 >#
#50000
0D
#55000
b10 ?#
1D
#56000
xi"
bx A
bx i
bx '#
bx m
bx G"
bx J"
bx t"
b0 B
b0 g
b0 &#
b0 o
b0 {
b0 ~
b0 v"
1o"
1?
0m"
0<
b10 =#
b10 >#
#60000
0D
#65000
b11 ?#
1D
#66000
b0 A
b0 i
b0 '#
b0 m
b0 G"
b0 J"
b0 t"
1>
0o"
0?
b11 =#
b11 >#
#70000
0D
#75000
b0 ?#
1D
#76000
0i"
bz r"
0>
1=
b0 =#
b0 >#
#80000
0D
0E
#85000
b1 ?#
1D
#86000
bx B
bx g
bx &#
bx o
bx {
bx ~
bx v"
bx r"
1m"
1<
0=
b1 =#
b1 >#
#90000
0D
#95000
bx ~"
b10 ?#
1D
#96000
xi"
bx A
bx i
bx '#
bx m
bx G"
bx J"
bx t"
bx u"
bx }"
1o"
1?
0m"
0<
b10 =#
b10 >#
#100000
0D
#105000
b11 ?#
bx $#
1D
#106000
1>
0o"
0?
b11 =#
b11 >#
bx s"
bx ##
#110000
0D
#112000
b1 a
b0 M
b0 L
b0 K
b0 J
0O
0N
b0 Q
b0 P
0S
0R
b0 U
b0 T
b0 Y
b0 X
0W
0V
b0 G
b0 F
b0 I
b0 H
b10 [
b10 Z
#115000
bx K"
bx !"
b0 ?#
1D
#116000
0i"
bz r"
bx F"
bx H"
bx L"
bx z
bx |
bx ""
0>
1=
b0 =#
b0 >#
#120000
0D
#125000
b1 ?#
1D
#126000
bx r"
1m"
1<
0=
b1 =#
b1 >#
#130000
0D
#135000
b10 ?#
1D
#136000
xi"
1o"
1?
0m"
0<
b10 =#
b10 >#
#140000
0D
#145000
b11 ?#
1D
#146000
1>
0o"
0?
b11 =#
b11 >#
#150000
0D
#152000
b10 a
b1 U
b1 T
b1 \
b10 ]
b11101000110010101110011011101000101111101110011011101000110000101101100011011000101111101000010 B#
b0zz @#
b10 A#
b10 c
#155000
bx O"
bx %"
b0 ?#
1D
#156000
0i"
bz r"
bx E"
bx M"
bx P"
bx y
bx #"
bx &"
0>
1=
b0 =#
b0 >#
#160000
0D
#165000
b1 ?#
1D
#166000
bx r"
1m"
1<
0=
b1 =#
b1 >#
#170000
0D
#175000
b10 ?#
1D
#176000
xi"
1o"
1?
0m"
0<
b10 =#
b10 >#
#180000
0D
#185000
b11 ?#
1D
#186000
1>
0o"
0?
b11 =#
b11 >#
#190000
0D
#192000
b11 a
b10 \
b100 ]
b11101000110010101110011011101000101111101110011011101000110000101101100011011000101111101000010 B#
b100 c
#195000
bx S"
bx )"
b0 ?#
1D
#196000
0i"
bz r"
bx D"
bx Q"
bx T"
bx x
bx '"
bx *"
0>
1=
b0 =#
b0 >#
#200000
0D
#205000
b1 ?#
1D
#206000
bx r"
1m"
1<
0=
b1 =#
b1 >#
#210000
0D
#215000
b10 ?#
1D
#216000
xi"
1o"
1?
0m"
0<
b10 =#
b10 >#
#220000
0D
#225000
b11 ?#
1D
#226000
1>
0o"
0?
b11 =#
b11 >#
#230000
0D
#232000
b100 a
b1 `
b1 P
1R
b10000 T
1V
b1001000000010000 F
b1000001000000000 H
b1 [
b0 Z
b11 \
b110 ]
b11101000110010101110011011101000101111101110011011101000110000101101100011011000101111101000010 B#
b110 c
#235000
bx W"
bx -"
b0 ?#
1D
#236000
0i"
bz r"
bx C"
bx U"
bx X"
bx w
bx +"
bx ."
0>
1=
b0 =#
b0 >#
#240000
0D
#245000
b1 ?#
1D
#246000
bx r"
1m"
1<
0=
b1 =#
b1 >#
#250000
0D
#255000
b10 ?#
1D
#256000
xi"
1o"
1?
0m"
0<
b10 =#
b10 >#
#260000
0D
#265000
b11 ?#
1D
#266000
1>
0o"
0?
b11 =#
b11 >#
#270000
0D
#272000
b101 a
b11 `
b1 Q
b100 P
1S
b10000 U
b1011000000010000 T
b1 Y
1W
b1001001000010000 G
b1101000110110000 F
b1000001000000010 I
b1000001000000001 H
b0 [
b0zzzz D#
bz C#
bz @#
b100 \
b10010 ]
b1110100011001010111001101110100010111110110010001101101011001010110110101011111011001000110000101110100011000010101111101000001 B#
b0 A#
b10010 c
#275000
bx ["
bx 1"
b0 ?#
1D
#276000
0i"
bz r"
bx B"
bx Y"
bx \"
bx v
bx /"
bx 2"
0>
1=
b0 =#
b0 >#
#280000
0D
#285000
b1 ?#
1D
#286000
bx r"
1m"
1<
0=
b1 =#
b1 >#
#290000
0D
#295000
b10 ?#
1D
#296000
xi"
1o"
1?
0m"
0<
b10 =#
b10 >#
#300000
0D
#305000
b11 ?#
1D
#306000
1>
0o"
0?
b11 =#
b11 >#
#310000
0D
#312000
b110 a
b101 `
b1101000000010000 T
b10 Y
b1 X
b1001010000010000 G
b1101001111010000 F
b1000001000000100 I
b1000001000000011 H
b0zzzz D#
bz C#
b0 A#
b101 \
b101000 ]
b1110100011001010111001101110100010111110110010001101101011001010110110101011111011001000110000101110100011000010101111101000010 B#
bz @#
b101000 c
#315000
bx _"
bx 5"
b0 ?#
1D
#316000
0i"
bz r"
bx A"
bx ]"
bx `"
bx u
bx 3"
bx 6"
0>
1=
b0 =#
b0 >#
#320000
0D
#325000
b1 ?#
1D
#326000
bx r"
1m"
1<
0=
b1 =#
b1 >#
#330000
0D
#335000
b10 ?#
1D
#336000
xi"
1o"
1?
0m"
0<
b10 =#
b10 >#
#340000
0D
#345000
b11 ?#
1D
#346000
1>
0o"
0?
b11 =#
b11 >#
#350000
0D
#352000
b111 a
b111 `
b11 Y
b10 X
b1001011000010000 G
b1101010111010000 F
b1000001000000110 I
b1000001000000101 H
b0zzzz D#
bz C#
b0 A#
b110 \
b111110 ]
b1110100011001010111001101110100010111110110010001101101011001010110110101011111011001000110000101110100011000010101111101000010 B#
bz @#
b111110 c
#355000
bx c"
bx 9"
b0 ?#
1D
#356000
0i"
bz r"
bx @"
bx a"
bx d"
bx t
bx 7"
bx :"
0>
1=
b0 =#
b0 >#
#360000
0D
#365000
b1 ?#
1D
#366000
bx r"
1m"
1<
0=
b1 =#
b1 >#
#370000
0D
#375000
b10 ?#
1D
#376000
xi"
1o"
1?
0m"
0<
b10 =#
b10 >#
#380000
0D
#385000
b11 ?#
1D
#386000
1>
0o"
0?
b11 =#
b11 >#
#390000
0D
#392000
b1000 a
b1001 `
b10010011 U
b1011000000010000 T
b110 Y
b11 X
b1001110010010011 G
b1101011110110000 F
b1000001000001000 I
b1000001000000111 H
b0zzzz D#
bz C#
b0 A#
b111 \
b1010100 ]
b1110100011001010111001101110100010111110110010001101101011001010110110101011111011001000110000101110100011000010101111101000010 B#
bz @#
b1010100 c
#395000
bx g"
bx ="
b0 ?#
1D
#396000
0i"
bz r"
bx n
bx >"
bx ?"
bx e"
bx p
bx r
bx s
bx ;"
0>
1=
b0 =#
b0 >#
#400000
0D
#405000
b1 ?#
1D
#406000
bx r"
1m"
1<
0=
b1 =#
b1 >#
#410000
0D
#415000
b10 ?#
1D
#416000
xi"
1o"
1?
0m"
0<
b10 =#
b10 >#
#420000
0D
#425000
b11 ?#
1D
#426000
1>
0o"
0?
b11 =#
b11 >#
#430000
0D
#432000
b1001 a
b1011 `
b100 Q
b1111111111100100 U
b101 Y
b100 X
b1001101111100100 G
b1100011100000 F
b1000001000001010 I
b1000001000001001 H
b0zzzz D#
bz C#
b0 A#
b1000 \
b1101010 ]
b1110100011001010111001101110100010111110110010001101101011001010110110101011111011001000110000101110100011000010101111101000010 B#
bz @#
b1101010 c
#435000
b0 ?#
1D
#436000
0i"
bz r"
0>
1=
b0 =#
b0 >#
#440000
0D
#445000
b1 ?#
1D
#446000
bx r"
1m"
1<
0=
b1 =#
b1 >#
#450000
0D
#455000
b10 ?#
1D
#456000
xi"
1o"
1?
0m"
0<
b10 =#
b10 >#
#460000
0D
#465000
b11 ?#
1D
#466000
1>
0o"
0?
b11 =#
b11 >#
#470000
0D
#472000
b1010 a
b1101 `
b1 P
b1111111101101110 U
b1 T
b110 Y
b11 X
0V
b1001110101101110 G
b10011110000011 F
b1000001000001100 I
b1000001000001011 H
b0zzzz D#
bz C#
b0 A#
b1001 \
b10000000 ]
b1110100011001010111001101110100010111110110010001101101011001010110110101011111011001000110000101110100011000010101111101000010 B#
bz @#
b10000000 c
#475000
b0 ?#
1D
#476000
0i"
bz r"
0>
1=
b0 =#
b0 >#
#480000
0D
#485000
b1 ?#
1D
#486000
bx r"
1m"
1<
0=
b1 =#
b1 >#
#490000
0D
#495000
b10 ?#
1D
#496000
xi"
1o"
1?
0m"
0<
b10 =#
b10 >#
#500000
0D
#505000
b11 ?#
1D
#506000
1>
0o"
0?
b11 =#
b11 >#
#510000
0D
#512000
b1011 a
b1111 `
b1 Q
b100 P
b1 U
b1000000000100000 T
b10 Y
b110 X
0W
1V
b10010010000000 G
b1110100000001 F
b1000001000001110 I
b1000001000001101 H
b0zzzz D#
bz C#
b0 A#
b1010 \
b10010100 ]
b1110100011001010111001101110100010111110110010001101101011001010110110101011111011001000110000101110100011000010101111101000010 B#
bz @#
b10010110 c
#515000
b0 ?#
1D
#516000
0i"
bz r"
0>
1=
b0 =#
b0 >#
#520000
0D
#525000
b1 ?#
1D
#526000
bx r"
1m"
1<
0=
b1 =#
b1 >#
#530000
0D
#535000
b10 ?#
1D
#536000
xi"
1o"
1?
0m"
0<
b10 =#
b10 >#
#540000
0D
#545000
b11 ?#
1D
#546000
1>
0o"
0?
b11 =#
b11 >#
#550000
0D
#552000
b1100 a
b10001 `
b1 P
b1000000000 U
b11111100 T
b111 Y
b101 X
1W
b1111110001011 G
b1001101011111100 F
b1000001000010000 I
b1000001000001111 H
b0zzzz D#
bz C#
b0 A#
b1011 \
b10101000 ]
b1110100011001010111001101110100010111110110010001101101011001010110110101011111011001000110000101110100011000010101111101000010 B#
bz @#
b10101100 c
#555000
b0 ?#
1D
#556000
0i"
bz r"
0>
1=
b0 =#
b0 >#
#560000
0D
#565000
b1 ?#
1D
#566000
bx r"
1m"
1<
0=
b1 =#
b1 >#
#570000
0D
#575000
b10 ?#
1D
#576000
xi"
1o"
1?
0m"
0<
b10 =#
b10 >#
#580000
0D
#585000
b11 ?#
1D
#586000
1>
0o"
0?
b11 =#
b11 >#
#590000
0D
#592000
b1101 a
b10011 `
b100 P
b100000000000 U
b1001011000100000 T
b110 X
b1101111100001000 G
b1101110110010110 F
b1000001000010010 I
b1000001000010001 H
b0zzzz D#
bz C#
b0 A#
b1100 \
b10111110 ]
b1110100011001010111001101110100010111110110010001101101011001010110110101011111011001000110000101110100011000010101111101000010 B#
bz @#
b11000010 c
#595000
b0 ?#
1D
#596000
0i"
bz r"
0>
1=
b0 =#
b0 >#
#600000
0D
#605000
b1 ?#
1D
#606000
bx r"
1m"
1<
0=
b1 =#
b1 >#
#610000
0D
#615000
b10 ?#
1D
#616000
xi"
1o"
1?
0m"
0<
b10 =#
b10 >#
#620000
0D
#625000
b11 ?#
1D
#626000
1>
0o"
0?
b11 =#
b11 >#
#630000
0D
#632000
b1110 a
b10100 `
0S
b1 U
b1000110011111100 T
b0 Y
b101 X
0W
b0 G
b1101101110001100 F
b0 I
b1000001000010011 H
b1 [
b0zzzz D#
bz C#
b0 A#
b1101 \
b11010100 ]
b1110100011001010111001101110100010111110110010001101101011001010110110101011111011001000110000101110100011000010101111101000010 B#
bz @#
b11011000 c
#635000
b0 ?#
1D
#636000
0i"
bz r"
0>
1=
b0 =#
b0 >#
#640000
0D
#645000
b1 ?#
1D
#646000
bx r"
1m"
1<
0=
b1 =#
b1 >#
#650000
0D
#655000
b10 ?#
1D
#656000
xi"
1o"
1?
0m"
0<
b10 =#
b10 >#
#660000
0D
#665000
b11 ?#
1D
#666000
1>
0o"
0?
b11 =#
b11 >#
#670000
0D
#672000
b1111 a
b10101 `
b100 Q
b1111111111111000 T
b110 X
b1010110101011100 F
b1000001000010100 H
b0zzzz D#
bz C#
b1110 \
b0 A#
b11100000 ]
b1110100011001010111001101110100010111110110010001101101011001010110110101011111011001000110000101110100011000010101111101000001 B#
bz @#
b11100100 c
#675000
b0 ?#
1D
#676000
0i"
bz r"
0>
1=
b0 =#
b0 >#
#680000
0D
#685000
b1 ?#
1D
#686000
bx r"
1m"
1<
0=
b1 =#
b1 >#
#690000
0D
#695000
b10 ?#
1D
#696000
xi"
1o"
1?
0m"
0<
b10 =#
b10 >#
#700000
0D
#705000
b11 ?#
1D
#706000
1>
0o"
0?
b11 =#
b11 >#
#710000
0D
#712000
b10000 a
b10110 `
b101 X
b101101000010110 F
b1000001000010101 H
b0zzzz D#
bz C#
b1111 \
b0 A#
b11101100 ]
b1110100011001010111001101110100010111110110010001101101011001010110110101011111011001000110000101110100011000010101111101000001 B#
bz @#
b11110000 c
#715000
b0 ?#
1D
#716000
0i"
bz r"
0>
1=
b0 =#
b0 >#
#720000
0D
#725000
b1 ?#
1D
